%YAML 1.1
%TAG !u! tag:unity3d.com,2011:
--- !u!114 &11400000
MonoBehaviour:
  m_ObjectHideFlags: 0
  m_CorrespondingSourceObject: {fileID: 0}
  m_PrefabInternal: {fileID: 0}
  m_GameObject: {fileID: 0}
  m_Enabled: 1
  m_EditorHideFlags: 0
  m_Script: {fileID: 11500000, guid: d26295d7f79f99245ac9db05776e57b8, type: 3}
  m_Name: MachineGun
  m_EditorClassIdentifier: 
  bulletSpeed: 9
  damage: 10
  ammo: 5
  xAxisPlayer1: {fileID: 21300020, guid: f9c1cbc1e35f5d4489d75cec9f945e90, type: 3}
  yAxisPlayer1: {fileID: 21300020, guid: f9c1cbc1e35f5d4489d75cec9f945e90, type: 3}
  xNegativeAxisPlayer1: {fileID: 21300020, guid: f9c1cbc1e35f5d4489d75cec9f945e90,
    type: 3}
  yNegativeAxisPlayer1: {fileID: 21300020, guid: f9c1cbc1e35f5d4489d75cec9f945e90,
    type: 3}
  xAxisPlayer2: {fileID: 21300022, guid: f9c1cbc1e35f5d4489d75cec9f945e90, type: 3}
  yAxisPlayer2: {fileID: 21300022, guid: f9c1cbc1e35f5d4489d75cec9f945e90, type: 3}
  xNegativeAxisPlayer2: {fileID: 21300022, guid: f9c1cbc1e35f5d4489d75cec9f945e90,
    type: 3}
  yNegativeAxisPlayer2: {fileID: 21300022, guid: f9c1cbc1e35f5d4489d75cec9f945e90,
    type: 3}
