%YAML 1.1
%TAG !u! tag:unity3d.com,2011:
--- !u!1045 &1
EditorBuildSettings:
  m_ObjectHideFlags: 0
  serializedVersion: 2
  m_Scenes:
  - enabled: 1
    path: Assets/Scenes/PUN/LoadingScreen.unity
    guid: 1f854300a3fbed2459ddb67716f00c87
  - enabled: 1
    path: Assets/Scenes/PUN/MainMenu.unity
    guid: 68235fc8d64e86a4f8f167b03c7d4f87
  - enabled: 0
    path: Assets/Scenes/PUN/Old/GameScene.unity
    guid: 9c70d7b896e448b489878c1cab9e06bb
  - enabled: 1
    path: Assets/Scenes/PUN/Game.unity
    guid: ba096e2ad730ef846bd78c5fc79d22d1
  m_configObjects: {}
